<svg width="33" height="32" viewBox="0 0 33 32" fill="none" xmlns="http://www.w3.org/2000/svg">
<path d="M16.5 29.3333C23.8638 29.3333 29.8333 23.3638 29.8333 16C29.8333 8.63616 23.8638 2.66663 16.5 2.66663C9.1362 2.66663 3.16667 8.63616 3.16667 16C3.16667 23.3638 9.1362 29.3333 16.5 29.3333Z" stroke="#D9D8D8" stroke-width="2" stroke-linecap="round" stroke-linejoin="round"/>
<path d="M16.5 10.6666L11.1667 16L16.5 21.3333" stroke="#D9D8D8" stroke-width="2" stroke-linecap="round" stroke-linejoin="round"/>
<path d="M21.8333 16H11.1667" stroke="#D9D8D8" stroke-width="2" stroke-linecap="round" stroke-linejoin="round"/>
</svg>
