<svg width="120" height="120" viewBox="0 0 120 120" fill="none" xmlns="http://www.w3.org/2000/svg">
<rect width="120" height="120" rx="8" fill="#F7F7F7" fill-opacity="0.4"/>
<g clip-path="url(#clip0)">
<path d="M41.3188 59.9995C41.3239 54.9736 43.3227 50.1549 46.8766 46.601C50.4305 43.0471 55.2492 41.0483 60.2751 41.0432C63.6007 41.0501 66.8664 41.9282 69.747 43.59C72.6275 45.2519 75.0224 47.6395 76.693 50.515L71.8947 53.2902L87.9861 44.001C87.5722 43.2499 86.9741 42.6165 86.248 42.1604L62.7367 28.5882C61.3795 27.8039 59.1644 27.8039 57.8103 28.5882L34.2991 42.1604C32.9482 42.9414 31.8407 44.862 31.8407 46.4273V73.5717C31.8407 74.356 32.116 75.2266 32.5641 75.9981L43.8604 69.4745C42.191 66.5961 41.3141 63.3269 41.3188 59.9995Z" fill="#4F4F4F"/>
<path d="M68.4818 55.2592C67.6473 53.821 66.4503 52.6266 65.0102 51.7954C63.5701 50.9641 61.9372 50.525 60.2744 50.5217C58.6121 50.525 56.9798 50.9649 55.541 51.7975C54.1022 52.63 52.9074 53.826 52.0763 55.2656C51.2451 56.7052 50.8068 58.3379 50.8052 60.0002C50.8036 61.6626 51.2387 63.2961 52.0671 64.7373L60.2744 59.9999L68.4818 55.2592Z" fill="#4F4F4F"/>
<path d="M87.9852 44.002L71.833 53.3264L68.4848 55.263L68.4816 55.2598L60.2742 60.0005L52.0701 64.738C52.9022 66.1779 54.0981 67.3738 55.538 68.2058C56.9779 69.0378 58.6112 69.4768 60.2742 69.4786C61.938 69.476 63.5718 69.0367 65.0126 68.2048C66.4534 67.3729 67.6507 66.1775 68.4848 64.738L76.6889 69.485C75.0188 72.361 72.6241 74.7489 69.7434 76.4108C66.8627 78.0727 63.5967 78.9506 60.271 78.9568C56.9438 78.9548 53.6756 78.0777 50.7944 76.4135C47.9133 74.7493 45.5205 72.3566 43.8564 69.4754L32.5601 75.9991C33.0082 76.7737 33.6228 77.4491 34.2982 77.8396L57.8095 91.4118C59.1635 92.1961 61.3786 92.1961 62.7358 91.4118L86.2471 77.8396C86.9225 77.4491 87.5371 76.7737 87.9852 75.9991C88.4334 75.2276 88.7087 74.357 88.7087 73.5727V46.4283C88.7087 45.6441 88.4334 44.7734 87.9852 44.002ZM79.2305 61.0536H77.1243V63.1599H75.0212V61.0536H72.915V58.9474H75.0212V56.8411H77.1243V58.9474H79.2305V61.0536ZM87.1306 61.0536H85.0243V63.1599H82.9181V61.0536H80.815V58.9474H82.9181V56.8411H85.0243V58.9474H87.1306V61.0536Z" fill="#4F4F4F"/>
</g>
<defs>
<clipPath id="clip0">
<rect width="64" height="64" fill="white" transform="translate(28 28)"/>
</clipPath>
</defs>
</svg>
