<svg width="120" height="120" viewBox="0 0 120 120" fill="none" xmlns="http://www.w3.org/2000/svg">
<rect width="120" height="120" rx="8" fill="#F7F7F7" fill-opacity="0.4"/>
<path d="M62.3849 47.2002C60.5717 47.2002 59.0553 48.7495 59.0553 50.5627V51.1508C57.3593 51.2344 55.9843 51.5665 55.0039 52.2394C53.791 53.0719 53.1277 54.2027 52.5847 55.1874C52.0417 56.1721 51.5965 57.0194 50.9496 57.6125C50.398 58.1184 49.5811 58.4654 48.3253 58.6239C48.1629 56.9572 46.7578 55.6195 45.0518 55.6195H31.9984C30.1852 55.6195 28.6401 57.1136 28.6401 58.9268V62.1525C28.6401 63.9657 30.1852 65.4614 31.9984 65.4614H45.0518C46.865 65.4614 48.3877 63.9658 48.3877 62.1525V60.9258C55.7829 61.0422 57.8673 62.9052 60.245 64.9846C62.5266 66.98 65.3136 69.0746 71.9822 69.1628V69.7226C71.9822 71.5358 73.5558 73.053 75.369 73.053H88.3654C90.1786 73.053 91.7522 71.5359 91.7522 69.7226V66.497C91.7522 64.6838 90.1786 63.1681 88.3654 63.1681H75.369C73.5558 63.1681 71.9822 64.6838 71.9822 66.497V66.9425C65.8244 66.897 64.0089 65.3034 61.7187 63.3005C59.815 61.6358 57.4303 59.814 52.6344 59.0531C53.5286 58.1563 54.0665 57.1376 54.5458 56.2686C55.0607 55.3348 55.5266 54.5953 56.2715 54.084C56.8516 53.6858 57.7737 53.4458 59.056 53.3696V53.7884C59.056 55.6016 60.5725 57.0851 62.3857 57.0851H75.4961C77.3093 57.0851 78.8257 55.6016 78.8257 53.7884V50.5628C78.8257 48.7496 77.3093 47.2002 75.4961 47.2002L62.3849 47.2002ZM62.3849 49.4813H75.4953C76.1075 49.4813 76.5438 49.9505 76.5438 50.5627V53.7884C76.5438 54.4006 76.1075 54.804 75.4953 54.804H62.3849C61.7727 54.804 61.3364 54.4006 61.3364 53.7884V50.5627C61.3364 49.9505 61.7727 49.4813 62.3849 49.4813V49.4813ZM31.9987 57.8577H45.0521C45.6643 57.8577 46.1291 58.3147 46.1291 58.9269V62.1526C46.1291 62.7648 45.6643 63.2233 45.0521 63.2233H31.9987C31.3864 63.2233 30.9216 62.7648 30.9216 62.1526V58.9269C30.9216 58.3147 31.3864 57.8577 31.9987 57.8577ZM75.3691 65.4493H88.3655C88.9777 65.4493 89.4712 65.8848 89.4712 66.497V69.6663C89.4712 70.2785 88.9777 70.7719 88.3655 70.7719H75.3691C74.7569 70.7719 74.2635 70.2785 74.2635 69.6663V66.497C74.2635 65.8848 74.7569 65.4493 75.3691 65.4493V65.4493Z" fill="#4F4F4F"/>
</svg>
