<svg width="120" height="120" viewBox="0 0 120 120" fill="none" xmlns="http://www.w3.org/2000/svg">
<rect width="120" height="120" rx="8" fill="#F7F7F7" fill-opacity="0.4"/>
<g clip-path="url(#clip0)">
<g clip-path="url(#clip1)">
<path d="M85.5013 60.2992L85.7399 59.9923L85.5013 59.6854L74.3252 45.3149L76.6933 43.4732L89.5402 59.9919L76.6867 76.5252L74.3183 74.684L85.5013 60.2992Z" fill="#4F4F4F" stroke="#FCFCFC"/>
<path d="M34.8907 59.6924L34.652 59.9993L34.8906 60.3062L46.067 74.6842L43.6986 76.5252L30.8519 59.9987L43.7053 43.4732L46.0735 45.3151L34.8907 59.6924Z" fill="#4F4F4F" stroke="#FCFCFC"/>
<path d="M49.1401 58.5H52.1408V61.5007H49.1401V58.5Z" fill="#4F4F4F" stroke="#FCFCFC"/>
<path d="M59.1399 58.5H62.1406V61.5007H59.1399V58.5Z" fill="#4F4F4F" stroke="#FCFCFC"/>
<path d="M69.1401 58.5H72.1408V61.5007H69.1401V58.5Z" fill="#4F4F4F" stroke="#FCFCFC"/>
</g>
</g>
<defs>
<clipPath id="clip0">
<rect width="64" height="64" fill="white" transform="translate(28 28)"/>
</clipPath>
<clipPath id="clip1">
<rect width="64" height="64" fill="white" transform="translate(28.6406 28)"/>
</clipPath>
</defs>
</svg>
