<svg width="120" height="120" viewBox="0 0 120 120" fill="none" xmlns="http://www.w3.org/2000/svg">
<rect width="120" height="120" rx="8" fill="#F7F7F7" fill-opacity="0.4"/>
<g clip-path="url(#clip0)">
<g clip-path="url(#clip1)">
<path d="M34.8959 75.1049L37.1964 76.4331L62.8249 32.0446L60.5244 30.7164L34.8959 75.1049Z" fill="#4F4F4F"/>
<path d="M85.6262 71.5598H34.3693V74.2163H85.6262V71.5598Z" fill="#4F4F4F"/>
<path d="M35.3834 73.0519L61.0215 87.8545L62.3497 85.554L36.7117 70.7514L35.3834 73.0519Z" fill="#4F4F4F"/>
<path d="M57.6553 34.4731L83.2933 49.2756L84.6216 46.9751L58.9835 32.1726L57.6553 34.4731Z" fill="#4F4F4F"/>
<path d="M35.3903 46.9644L36.7185 49.2649L62.3566 34.4623L61.0283 32.1618L35.3903 46.9644Z" fill="#4F4F4F"/>
<path d="M57.1922 32.0453L82.8207 76.4338L85.1212 75.1056L59.4927 30.7171L57.1922 32.0453Z" fill="#4F4F4F"/>
<path d="M39.0578 45.2031H36.4014V74.8083H39.0578V45.2031Z" fill="#4F4F4F"/>
<path d="M83.6098 45.2031H80.9534V74.8083H83.6098V45.2031Z" fill="#4F4F4F"/>
<path d="M82.7585 73.8265L60.5989 86.6207L59.5187 84.7498L81.6783 71.9556L82.7585 73.8265Z" fill="#4F4F4F" stroke="#F8F8F8" stroke-width="0.160028"/>
<path d="M87.061 75.6323L87.0608 75.6326C85.5467 78.2665 82.1712 79.1659 79.5367 77.6515C76.9028 76.1374 76.0035 72.7619 77.5179 70.1274C79.0319 67.4936 82.4075 66.5942 85.0419 68.1085C87.6922 69.6388 88.5909 72.9984 87.061 75.6323Z" fill="#4F4F4F" stroke="#F8F8F8" stroke-width="0.160028"/>
<path d="M42.4771 49.8844C40.963 52.5182 37.5874 53.4176 34.953 51.9032C32.3191 50.3891 31.4197 47.0136 32.9341 44.3791C34.4482 41.7453 37.8237 40.8459 40.4581 42.3602C43.0924 43.8904 43.9913 47.2502 42.4771 49.8844Z" fill="#4F4F4F" stroke="#F8F8F8" stroke-width="0.160028"/>
<path d="M32.9501 75.6326C31.4359 72.9985 32.3348 69.6387 34.9691 68.1085C37.6032 66.5944 40.9629 67.4933 42.4931 70.1275C44.0073 72.7616 43.1084 76.1213 40.4741 77.6516C37.8236 79.166 34.4641 78.2664 32.9501 75.6326Z" fill="#4F4F4F" stroke="#F8F8F8" stroke-width="0.160028"/>
<path d="M77.5339 49.8844C76.0196 47.2502 76.9186 43.8904 79.5529 42.3602C82.187 40.8461 85.5466 41.745 87.0769 44.3792C88.591 47.0133 87.6921 50.373 85.0579 51.9033C82.4235 53.4176 79.0479 52.5182 77.5339 49.8844Z" fill="#4F4F4F" stroke="#F8F8F8" stroke-width="0.160028"/>
<path d="M60.0055 91.2594C56.9612 91.2594 54.5005 88.7988 54.5005 85.7544C54.5005 82.7101 56.9612 80.2494 60.0055 80.2494C63.0499 80.2494 65.5105 82.7101 65.5105 85.7544C65.5105 88.7829 63.0497 91.2594 60.0055 91.2594Z" fill="#4F4F4F" stroke="#F8F8F8" stroke-width="0.160028"/>
<path d="M60.0055 39.7623C56.9612 39.7623 54.5005 37.3017 54.5005 34.2573C54.5005 31.213 56.9612 28.7524 60.0055 28.7524C63.0499 28.7524 65.5105 31.213 65.5105 34.2573C65.5105 37.3017 63.0499 39.7623 60.0055 39.7623Z" fill="#4F4F4F" stroke="#F8F8F8" stroke-width="0.160028"/>
</g>
</g>
<defs>
<clipPath id="clip0">
<rect width="64" height="64" fill="white" transform="translate(28 28)"/>
</clipPath>
<clipPath id="clip1">
<rect width="64" height="64" fill="white" transform="translate(28 28)"/>
</clipPath>
</defs>
</svg>
