<svg width="120" height="120" viewBox="0 0 120 120" fill="none" xmlns="http://www.w3.org/2000/svg">
<rect width="120" height="120" rx="8" fill="#F7F7F7" fill-opacity="0.4"/>
<path d="M85.9149 79.3837L85.9589 79.43L88.1246 81.7097L85.9149 79.3837ZM85.9149 79.3837V79.3198M85.9149 79.3837V79.3198M85.9149 79.3198V66.3198C85.9149 65.8159 85.9147 65.4516 85.8846 65.1813C85.8543 64.9099 85.7968 64.7685 85.7112 64.6831C85.6256 64.5977 85.4835 64.5403 85.2112 64.5101C84.9401 64.4801 84.5746 64.4799 84.0693 64.4799H66.0188C65.5135 64.4799 65.148 64.4801 64.8769 64.5101C64.6045 64.5403 64.4625 64.5977 64.3768 64.6831C64.2913 64.7685 64.2338 64.9099 64.2035 65.1813C64.1734 65.4516 64.1732 65.8159 64.1732 66.3198V79.3198V79.3837M85.9149 79.3198L64.1732 79.3837M64.1732 79.3837L64.1292 79.43M64.1732 79.3837L64.1292 79.43M64.1292 79.43L61.9635 81.7097L64.1292 79.43ZM87.4789 84.1598H62.2081C61.4714 84.1598 60.9338 84.1595 60.5735 84.1183C60.3924 84.0976 60.273 84.0681 60.2004 84.0326C60.134 84.0002 60.1275 83.9745 60.1254 83.9588C60.1211 83.9263 60.1316 83.8581 60.2009 83.7336C60.2677 83.6135 60.3766 83.4629 60.5322 83.2741C60.8431 82.8969 61.3197 82.3917 61.9631 81.71L87.4789 84.1598ZM87.4789 84.1598C88.3152 84.1598 88.9295 84.1596 89.3477 84.1181M87.4789 84.1598L89.3477 84.1181M89.3477 84.1181C89.5575 84.0973 89.704 84.0671 89.7997 84.0282M89.3477 84.1181L89.7997 84.0282M89.7997 84.0282C89.8942 83.9897 89.9121 83.9544 89.917 83.9366M89.7997 84.0282L89.917 83.9366M89.917 83.9366C89.9245 83.9099 89.924 83.849 89.8629 83.7277M89.917 83.9366L89.8629 83.7277M89.8629 83.7277C89.8038 83.6102 89.7009 83.4614 89.5487 83.2729M89.8629 83.7277L89.5487 83.2729M89.5487 83.2729C89.2446 82.8965 88.7687 82.392 88.125 81.71L89.5487 83.2729ZM55.9148 51.43L55.8708 51.3837V51.3198V38.3198C55.8708 37.8159 55.8705 37.4516 55.8404 37.1813C55.8102 36.9099 55.7527 36.7685 55.6671 36.6831C55.5814 36.5977 55.4394 36.5403 55.167 36.5101C54.8959 36.4801 54.5305 36.4799 54.0252 36.4799H35.9746C35.4693 36.4799 35.1038 36.4801 34.8327 36.5101C34.5604 36.5403 34.4184 36.5977 34.3327 36.6831C34.2471 36.7685 34.1896 36.9099 34.1594 37.1813C34.1292 37.4516 34.129 37.8159 34.129 38.3198V51.3198V51.3837L34.085 51.43L31.9193 53.7097C31.9193 53.7097 31.9192 53.7097 31.9192 53.7097C31.2757 54.3916 30.799 54.8968 30.488 55.2741C30.3324 55.4629 30.2235 55.6135 30.1567 55.7336C30.0875 55.8581 30.077 55.9263 30.0813 55.9588C30.0834 55.9745 30.0898 56.0002 30.1562 56.0326C30.2289 56.0681 30.3482 56.0976 30.5293 56.1183C30.8896 56.1595 31.4272 56.1598 32.1639 56.1598H57.4347C58.271 56.1598 58.8854 56.1596 59.3036 56.1181C59.5133 56.0972 59.6598 56.0671 59.7555 56.0282C59.85 55.9897 59.8679 55.9544 59.8729 55.9366C59.8804 55.9099 59.8798 55.849 59.8188 55.7277C59.7597 55.6102 59.6568 55.4614 59.5045 55.2729C59.2004 54.8964 58.7243 54.3919 58.0805 53.7097L55.9148 51.43ZM37.9802 50.4799H37.8202V50.3198V40.3198V40.1598H37.9802H52.0195H52.1796V40.3198V50.3198V50.4799H52.0195H37.9802ZM47.0055 72.4799H46.8455V72.3198V60.3198C46.8455 59.8159 46.8452 59.4516 46.8151 59.1813C46.7849 58.9099 46.7274 58.7685 46.6418 58.6831C46.5561 58.5977 46.4141 58.5403 46.1418 58.5101C45.8706 58.4801 45.5052 58.4799 44.9999 58.4799C44.4946 58.4799 44.1291 58.4801 43.858 58.5101C43.5857 58.5403 43.4436 58.5977 43.358 58.6831C43.2724 58.7685 43.2149 58.9099 43.1846 59.1813C43.1545 59.4516 43.1543 59.8159 43.1543 60.3198V74.3198C43.1543 75.391 43.9246 76.1598 44.9999 76.1598H60.0019C60.5072 76.1598 60.8727 76.1596 61.1438 76.1295C61.4161 76.0993 61.5581 76.042 61.6438 75.9565C61.7294 75.8712 61.7869 75.7298 61.8171 75.4584C61.8473 75.1881 61.8475 74.8237 61.8475 74.3198C61.8475 73.8159 61.8473 73.4516 61.8171 73.1813C61.7869 72.9099 61.7294 72.7685 61.6438 72.6831C61.5581 72.5977 61.4161 72.5403 61.1438 72.5101C60.8727 72.4801 60.5072 72.4799 60.0019 72.4799H47.0055ZM68.0244 78.4799H67.8644V78.3198V68.3198V68.1598H68.0244H82.0637H82.2237V68.3198V78.3198V78.4799H82.0637H68.0244Z" fill="#4F4F4F" stroke="#FCFCFC" stroke-width="0.320056"/>
</svg>
