<svg width="120" height="120" viewBox="0 0 120 120" fill="none" xmlns="http://www.w3.org/2000/svg">
<rect width="120" height="120" rx="8" fill="#F7F7F7" fill-opacity="0.4"/>
<g clip-path="url(#clip0)">
<path fill-rule="evenodd" clip-rule="evenodd" d="M33.4908 72.8883C33.6161 72.3239 33.3023 71.5725 32.2989 71.5725C31.4836 71.5725 30.6679 72.199 30.4169 73.5144C30.1656 74.8302 30.6679 75.5191 31.546 75.5191C32.4242 75.5191 32.9889 74.9555 33.3023 74.1409H32.6123C32.4242 74.5796 32.1104 74.8302 31.6713 74.8302C31.1069 74.8302 30.9813 74.2037 31.1069 73.5144C31.2954 72.512 31.8598 72.2615 32.1732 72.2615C32.8004 72.2615 32.8004 72.6366 32.8004 72.8879H33.4908V72.8883ZM34.9337 71.6346H34.2437L33.5537 75.3938H34.1809L34.9337 71.6346ZM36.4395 74.5796C36.377 74.7674 36.1261 74.8927 35.9379 74.8927C35.4357 74.8927 35.4985 74.3911 35.4985 74.2033H37.2555V74.0777C37.5069 72.8247 36.8789 72.5738 36.3774 72.5738C35.2479 72.5738 34.9969 73.6397 34.9341 73.9528C34.6832 75.0808 35.1851 75.4559 35.8755 75.4559C36.3145 75.4559 36.8165 75.2682 37.1302 74.5792H36.4395V74.5796ZM35.6238 73.765C35.7494 73.3891 35.9376 73.1385 36.2514 73.1385C36.4395 73.1385 36.6904 73.2642 36.6276 73.765H35.6238ZM39.8276 73.327C39.9529 72.6998 39.3253 72.5741 39.0119 72.5741C38.51 72.5741 37.9456 72.6998 37.6946 73.5144H38.3218C38.3843 73.3887 38.5103 73.1385 38.8237 73.1385C39.0119 73.1385 39.2632 73.1385 39.2 73.4516C39.1375 73.6401 39.0119 73.6401 38.8866 73.7022L38.3218 73.765C37.8827 73.8278 37.5065 74.1409 37.3808 74.6417C37.3184 75.2061 37.6318 75.4563 38.008 75.4563C38.4475 75.4563 38.6984 75.2685 38.8866 75.0811V75.3935H39.5766L39.6391 75.2685C39.5766 75.2685 39.5134 75.2057 39.5766 74.8298L39.8276 73.327ZM39.0119 74.3915C38.9494 74.7674 38.5728 74.9558 38.3218 74.9558C38.1965 74.9558 38.008 74.893 38.0709 74.6421C38.1337 74.329 38.3218 74.2669 38.5731 74.2041C38.8869 74.1412 39.0122 74.0784 39.0754 74.0784L39.0119 74.3915ZM42.6509 73.4519C42.7762 72.8883 42.4624 72.5745 41.9609 72.5745C41.5214 72.5745 41.2705 72.8883 41.1452 73.0132L41.208 72.6373H40.5804L40.0161 75.3942H40.7061L41.0199 73.8282C41.0823 73.3895 41.3337 73.1389 41.6474 73.1389C42.0865 73.1389 42.0237 73.5148 41.9609 73.7025L41.6474 75.3942H42.2747L42.6509 73.4519ZM45.2858 73.8278H46.7287L46.854 73.1385H45.4114L45.5367 72.3239H47.2309L47.3562 71.6346H44.972L44.2819 75.3938H44.972L45.2858 73.8278ZM49.8662 72.637H49.1758L48.862 74.2037C48.7991 74.7045 48.4853 74.8302 48.2344 74.8302C48.0463 74.8302 47.8581 74.7674 47.9206 74.3286L48.2344 72.637H47.6072L47.2309 74.4543C47.1053 75.1436 47.4191 75.4567 47.921 75.4567C48.2348 75.4567 48.5485 75.3317 48.7367 75.0179H48.7991L48.6735 75.3938H49.301L49.8662 72.637ZM51.5596 74.5796C51.4968 74.7674 51.2459 74.8927 51.0577 74.8927C50.5558 74.8927 50.6187 74.3911 50.6187 74.2033H52.3125L52.3753 74.0777C52.6267 72.8247 51.9991 72.5738 51.4972 72.5738C50.3677 72.5738 50.0543 73.6397 49.9914 73.9528C49.8033 75.0808 50.2428 75.4559 50.9953 75.4559C51.3719 75.4559 51.9366 75.2682 52.2504 74.5792H51.5596V74.5796ZM50.744 73.765C50.8692 73.3891 51.0577 73.1385 51.3715 73.1385C51.5596 73.1385 51.8106 73.2642 51.7478 73.765H50.744ZM53.9439 71.6346H53.2539L52.5635 75.3938H53.191L53.9439 71.6346ZM56.265 73.4519C56.3906 72.6998 55.8259 72.5745 55.324 72.5745C54.5707 72.5745 54.1945 73.0761 54.132 73.4519C53.9435 74.5171 55.5753 74.1412 55.4493 74.6421C55.4493 74.7049 55.324 74.8934 55.0102 74.8934C54.5708 74.8934 54.5083 74.7677 54.5083 74.5175H53.8807C53.7551 75.2696 54.3202 75.457 54.8845 75.457C55.2612 75.457 56.014 75.3321 56.1393 74.5175C56.3282 73.5151 54.6968 73.8282 54.8221 73.3895C54.8221 73.2645 54.8849 73.0764 55.2615 73.0764C55.6378 73.0764 55.6378 73.2649 55.6378 73.4523H56.265V73.4519ZM57.2692 74.6417H56.5791L56.4535 75.3938H57.1435L57.2692 74.6417ZM62.2883 72.8883C62.3511 72.3239 62.037 71.5725 61.0331 71.5725C60.2174 71.5725 59.4021 72.199 59.1511 73.5144C58.9002 74.8298 59.4021 75.5191 60.2806 75.5191C61.1588 75.5191 61.7239 74.9555 62.0373 74.1409H61.3473C61.1588 74.5796 60.845 74.8302 60.4691 74.8302C59.8416 74.8302 59.7159 74.2037 59.8416 73.5144C60.0297 72.512 60.5941 72.2615 60.9078 72.2615C61.5358 72.2615 61.5358 72.6366 61.5358 72.8879H62.2883V72.8883ZM64.9231 74.0152C65.1116 73.0129 64.6101 72.5741 63.9193 72.5741C63.2921 72.5741 62.5396 73.0129 62.3511 74.0152C62.1626 75.0176 62.727 75.4563 63.3549 75.4563C64.045 75.4567 64.7354 75.0179 64.9231 74.0152ZM64.2331 74.0152C64.1703 74.3911 63.9818 74.8298 63.4802 74.8298C62.9779 74.8298 62.9779 74.3911 63.0408 74.0152C63.1036 73.6401 63.2921 73.1385 63.7936 73.1385C64.2959 73.1385 64.2959 73.6401 64.2331 74.0152ZM67.7461 73.4519C67.8718 72.8883 67.5583 72.5745 67.0561 72.5745C66.5545 72.5745 66.366 72.8883 66.2407 73.0132H66.1779L66.3036 72.6373H65.6764L65.1113 75.3942H65.8013L66.1151 73.8282C66.1779 73.3895 66.4289 73.1389 66.7423 73.1389C67.1189 73.1389 67.0561 73.5148 67.0561 73.7025L66.7423 75.3942H67.3702L67.7461 73.4519ZM70.5694 72.637H69.8794L68.9384 74.6417L68.8128 72.637H68.0603L68.4369 75.3938H69.1269L70.5694 72.637ZM72.0127 74.5796C71.9802 74.6704 71.9207 74.7491 71.8421 74.805C71.7635 74.861 71.6697 74.8916 71.5733 74.8927C71.0089 74.8927 71.0717 74.3911 71.0717 74.2033H72.8284V74.0777C73.0797 72.8247 72.4525 72.5738 71.9503 72.5738C70.8836 72.5738 70.5698 73.6397 70.507 73.9528C70.2564 75.0808 70.7583 75.4559 71.4487 75.4559C71.8874 75.4559 72.3897 75.2682 72.7038 74.5792H72.0127V74.5796ZM71.1974 73.765C71.323 73.3891 71.5112 73.1385 71.8246 73.1385C72.0131 73.1385 72.264 73.2642 72.2012 73.765H71.1974ZM75.6514 73.4519C75.7771 72.8883 75.4629 72.5745 74.9614 72.5745C74.4598 72.5745 74.2085 72.8883 74.0832 73.0132L74.146 72.6373H73.5188L73.0165 75.3942H73.6437L73.9575 73.8282C74.0832 73.3895 74.3342 73.1389 74.5847 73.1389C75.0242 73.1389 74.9614 73.5148 74.9614 73.7025L74.5847 75.3942H75.2755L75.6514 73.4519ZM76.4046 72.637L75.9023 75.3938H76.5296L77.0947 72.637H76.4046ZM77.2832 71.6346H76.5924L76.4667 72.3239H77.1575L77.2832 71.6346ZM78.7885 74.5796C78.756 74.6704 78.6965 74.7491 78.6179 74.805C78.5393 74.861 78.4455 74.8916 78.3491 74.8927C77.7847 74.8927 77.8475 74.3911 77.8475 74.2033H79.6042V74.0777C79.8555 72.8247 79.2283 72.5738 78.7261 72.5738C77.6594 72.5738 77.3464 73.6397 77.2835 73.9528C77.0322 75.0808 77.5341 75.4559 78.2245 75.4559C78.6632 75.4559 79.1655 75.2682 79.4789 74.5792H78.7885V74.5796ZM77.9728 73.765C78.0985 73.3891 78.2859 73.1385 78.6008 73.1385C78.7885 73.1385 79.0395 73.2642 78.9767 73.765H77.9728ZM82.4279 73.4519C82.5529 72.8883 82.2394 72.5745 81.7372 72.5745C81.2349 72.5745 80.9843 72.8883 80.859 73.0132L80.9218 72.6373H80.2946L79.7923 75.3942H80.4196L80.7333 73.8282C80.859 73.3895 81.11 73.1389 81.3613 73.1389C81.8 73.1389 81.7372 73.5148 81.7372 73.7025L81.3613 75.3942H82.0513L82.4279 73.4519ZM84.3092 74.3915C84.3092 74.5171 84.1214 74.893 83.8076 74.893C83.3061 74.893 83.4318 74.2665 83.4318 73.9535C83.4939 73.6404 83.7448 73.1389 84.1218 73.1389C84.4348 73.1389 84.4977 73.4519 84.4977 73.6404H85.1256C85.2513 72.763 84.6233 72.5745 84.2474 72.5745C83.4321 72.5745 82.9298 73.2017 82.7413 74.0784C82.6785 74.6421 82.7414 75.4567 83.6195 75.4567C84.5605 75.4567 84.9371 74.7045 85 74.3915H84.3092ZM86.8819 74.5796C86.8191 74.7674 86.5682 74.8927 86.3797 74.8927C85.8781 74.8927 85.9409 74.3911 85.9409 74.2033H87.6348L87.6976 74.0777C87.949 72.8247 87.3217 72.5738 86.8195 72.5738C85.69 72.5738 85.3769 73.6397 85.3134 73.9528C85.1256 75.0808 85.5647 75.4559 86.3179 75.4559C86.6938 75.4559 87.2589 75.2682 87.5723 74.5792H86.8819V74.5796ZM86.0666 73.765C86.1923 73.3891 86.3797 73.1385 86.6938 73.1385C86.8823 73.1385 87.1333 73.2642 87.0704 73.765H86.0666ZM88.8268 74.6417H88.0742L87.9486 75.3938H88.6386L88.8268 74.6417Z" fill="#4F4F4F"/>
<path fill-rule="evenodd" clip-rule="evenodd" d="M51.6854 60.8587C50.6816 65.7459 47.5445 67.8135 43.1529 67.8135C41.5844 67.8135 39.0752 67.625 37.9457 65.7459C37.1925 64.6179 37.3181 62.9891 37.6319 61.1093L40.0786 48.8917H44.2824L42.0866 60.8587C41.71 62.6125 42.0866 64.1171 43.6552 64.4294C46.1019 64.931 47.4824 63.2393 47.9843 61.0461L50.3685 48.8914H54.07L51.6854 60.8587Z" fill="#4F4F4F" stroke="#4F4F4F" stroke-width="0.854983" stroke-miterlimit="2.613"/>
<path fill-rule="evenodd" clip-rule="evenodd" d="M59.8414 52.2121H62.79C63.1038 52.2746 65.9272 52.6505 65.1115 58.0389C64.6099 61.1092 62.2881 64.1791 60.4061 64.4925C60.4061 64.4297 57.5828 64.4925 57.5828 64.4925L59.8414 52.2121ZM52.689 67.4996H60.2176C65.9268 67.4996 68.9386 61.9238 69.5655 57.5377C70.0677 53.8409 68.6245 49.643 64.0448 48.8916H56.3908L52.689 67.4996Z" fill="#4F4F4F"/>
<path d="M59.8414 52.2121H62.79C63.1038 52.2746 65.9272 52.6505 65.1115 58.0389C64.6099 61.1092 62.2881 64.1791 60.4061 64.4925H57.5828L59.8414 52.2121ZM52.689 67.4996H60.2176C65.9268 67.4996 68.9386 61.9238 69.5662 57.5377C70.0677 53.8409 68.6245 49.643 64.0448 48.8916H56.3908L52.689 67.4996Z" stroke="#4F4F4F" stroke-width="0.854983" stroke-miterlimit="2.613"/>
<path fill-rule="evenodd" clip-rule="evenodd" d="M73.3932 61.7353C73.8319 63.2392 74.5848 64.1787 76.7181 64.6178C78.4127 64.9937 80.6705 64.4293 80.4196 62.2368C80.2318 60.7957 79.0399 60.7329 78.1613 60.4823L76.4046 59.9811C73.7062 59.2918 71.1342 58.1013 71.9499 54.0912C72.3894 52.0236 74.1461 48.0138 79.7295 48.3897C83.8077 48.6406 84.6858 50.2695 85.8781 52.5251L82.1766 53.7156C81.7372 52.3998 80.169 51.4603 78.3487 51.8362C76.969 52.0868 76.4668 52.5251 76.279 53.465C76.1533 54.0287 76.0905 54.5931 77.0319 55.3448L80.859 56.4725C83.118 57.099 85.69 58.2895 85 61.6096C83.8705 67.124 77.8476 67.8751 76.3422 67.813C71.4487 67.6873 70.0051 65.1182 69.3147 62.487L73.3932 61.7353Z" fill="#4F4F4F" stroke="#4F4F4F" stroke-width="0.854983" stroke-miterlimit="2.613"/>
<path fill-rule="evenodd" clip-rule="evenodd" d="M87.1333 51.8361H87.823V53.089H88.0743V51.8361H88.764V51.6479H87.1333V51.8361ZM90.8344 53.089V51.6479H90.4578L89.8935 52.9009L89.3283 51.6479H88.9525V53.089H89.2038V52.2748V51.8989L89.7682 53.0894H90.0195L90.5839 51.8989V53.089H90.8344Z" fill="#4F4F4F"/>
<path d="M87.1333 51.8361H87.8233V53.089H88.0747V51.8361H88.7647V51.6479H87.1337V51.8361H87.1333ZM90.8344 53.089V51.6479H90.4578L89.8935 52.9009L89.3283 51.6479H88.9525V53.089H89.2038V52.2748V51.8989L89.7682 53.0894H90.0195L90.5839 51.8989V53.089H90.8344V53.089Z" stroke="#4F4F4F" stroke-width="0.0530006" stroke-miterlimit="2.613"/>
<path fill-rule="evenodd" clip-rule="evenodd" d="M38.1961 54.6558C54.0692 64.1793 78.4122 58.4778 80.3571 57.4751C80.482 57.4751 80.4192 57.6004 80.4192 57.6004C80.1061 60.2948 58.4607 66.873 37.5061 58.4146L38.1961 54.6558Z" fill="#FCFCFC"/>
<path d="M37.9433 54.6503L37.3547 58.2369C37.2299 58.1714 37.1042 58.1055 36.9776 58.0391C35.9341 57.492 34.8395 56.9182 33.8542 56.3559C32.7015 55.6981 31.7091 55.062 31.1243 54.5088C29.5966 53.0454 29.1314 51.8624 29.3384 50.873C29.5471 49.8754 30.4484 49.0203 31.7925 48.2399L31.7925 48.2399L31.7944 48.2388C35.126 46.2177 40.3407 45.3104 44.7315 44.9111C46.7595 44.7266 48.6068 44.6509 50.0036 44.6227C41.7515 45.4558 37.5971 46.8609 35.6055 48.2156C34.507 48.9628 34.0535 49.7039 33.9486 50.3367C33.8439 50.9681 34.0901 51.471 34.3497 51.7302L34.3497 51.7303C35.6449 53.0237 36.9406 54.0165 37.9433 54.6503Z" fill="#4F4F4F" stroke="#F8F8F8" stroke-width="0.232459"/>
</g>
<defs>
<clipPath id="clip0">
<rect width="64" height="64" fill="white" transform="translate(28 28)"/>
</clipPath>
</defs>
</svg>
