<svg width="120" height="120" viewBox="0 0 120 120" fill="none" xmlns="http://www.w3.org/2000/svg">
<rect width="120" height="120" rx="8" fill="#F7F7F7" fill-opacity="0.4"/>
<g clip-path="url(#clip0)">
<path d="M59.6802 50.187H36.0357C34.244 50.187 32.5257 50.8988 31.2588 52.1657C29.9919 53.4326 29.2802 55.1509 29.2802 56.9426V70.4537C29.2802 72.2454 29.9919 73.9637 31.2588 75.2306C32.5257 76.4975 34.244 77.2092 36.0357 77.2092H46.169" stroke="#4F4F4F" stroke-width="3.28377" stroke-linecap="round" stroke-linejoin="round"/>
<path d="M59.6799 70.4541H83.3244C85.1161 70.4541 86.8344 69.7424 88.1013 68.4754C89.3682 67.2085 90.0799 65.4902 90.0799 63.6985V50.1874C90.0799 48.3958 89.3682 46.6775 88.1013 45.4105C86.8344 44.1436 85.1161 43.4319 83.3244 43.4319H73.191" stroke="#4F4F4F" stroke-width="3.28377" stroke-linecap="round" stroke-linejoin="round"/>
<path d="M46.1686 50.1873V36.6762C46.1686 34.8845 46.8803 33.1662 48.1472 31.8993C49.4141 30.6324 51.1324 29.9207 52.9241 29.9207H66.4352C68.2269 29.9207 69.9452 30.6324 71.2121 31.8993C72.4791 33.1662 73.1908 34.8845 73.1908 36.6762V53.5651C73.1908 55.3568 72.4791 57.0751 71.2121 58.342C69.9452 59.6089 68.2269 60.3207 66.4352 60.3207H52.9241C51.1324 60.3207 49.4141 61.0324 48.1472 62.2993C46.8803 63.5662 46.1686 65.2845 46.1686 67.0762V83.9651C46.1686 85.7568 46.8803 87.4751 48.1472 88.742C49.4141 90.0089 51.1324 90.7207 52.9241 90.7207H66.4352C68.2269 90.7207 69.9452 90.0089 71.2121 88.742C72.4791 87.4751 73.1908 85.7568 73.1908 83.9651V70.454" stroke="#4F4F4F" stroke-width="3.28377" stroke-linecap="round" stroke-linejoin="round"/>
<path d="M56.302 40.0535V40.0889" stroke="#4F4F4F" stroke-width="3.28377" stroke-linecap="round" stroke-linejoin="round"/>
<path d="M63.0579 80.5872V80.6226" stroke="#4F4F4F" stroke-width="3.28377" stroke-linecap="round" stroke-linejoin="round"/>
</g>
<defs>
<clipPath id="clip0">
<rect width="64" height="64" fill="white" transform="translate(28 28)"/>
</clipPath>
</defs>
</svg>
