<svg width="120" height="120" viewBox="0 0 120 120" fill="none" xmlns="http://www.w3.org/2000/svg">
<rect width="120" height="120" rx="8" fill="#F7F7F7" fill-opacity="0.4"/>
<g clip-path="url(#clip0)">
<g clip-path="url(#clip1)">
<path fill-rule="evenodd" clip-rule="evenodd" d="M86.4779 60.144C86.4225 60.0256 86.3976 59.9661 86.3678 59.9093C85.5668 58.3856 84.7679 56.8618 83.9587 55.3381C83.8775 55.1853 83.8878 55.0951 83.9988 54.9634C85.2734 53.4747 86.5315 51.9777 87.8081 50.4952C87.8532 50.4429 87.8933 50.3875 87.9102 50.2942C87.5396 50.3908 87.169 50.4863 86.7963 50.5845C85.2581 50.9922 83.7077 51.3979 82.1839 51.8117C82.0408 51.8503 81.976 51.8085 81.9039 51.6894C81.0309 50.2296 80.1516 48.7656 79.2683 47.3242C79.2232 47.2486 79.174 47.1753 79.0776 47.1121C79.0068 47.5013 78.9351 47.8884 78.8655 48.2776C78.6205 49.651 78.3755 51.0161 78.1325 52.3957C78.1059 52.5437 78.0697 52.6922 78.0569 52.8405C78.0448 52.9821 77.9717 53.0344 77.8428 53.0752C76.0287 53.6456 74.2188 54.22 72.4068 54.7945C72.3274 54.8194 72.2493 54.8524 72.1639 54.9296C73.6464 55.5185 75.1289 56.1074 76.6321 56.7066C76.5773 56.75 76.541 56.7838 76.5009 56.8095C75.5743 57.4087 74.6457 58.0079 73.7211 58.6092C73.6102 58.6816 73.5224 58.6919 73.3979 58.6357C72.2901 58.1374 71.1741 57.6474 70.0622 57.1532C69.5639 56.9308 69.1171 56.6364 68.7691 56.2081C67.9804 55.2444 68.1369 54.149 69.1871 53.4695C69.5309 53.2492 69.9221 53.0865 70.3113 52.9589C72.0883 52.3803 73.8735 51.8223 75.6443 51.2622C75.7938 51.2146 75.8626 51.1479 75.8914 50.9863C76.1303 49.6108 76.3753 48.2271 76.6244 46.8681C76.757 46.133 76.827 45.3815 77.1845 44.7061C77.3214 44.4466 77.4851 44.1934 77.6828 43.9772C78.3911 43.1906 79.3774 43.1618 80.1331 43.9096C80.3864 44.1629 80.6026 44.4594 80.7899 44.7662C81.6136 46.1108 82.4248 47.4636 83.2402 48.8226C83.336 48.9826 83.4221 49.0147 83.5985 48.9682C85.5855 48.4349 87.5725 47.9098 89.5698 47.3847C89.9817 47.2762 90.3955 47.2369 90.8176 47.3158C91.7339 47.4871 92.1354 48.1847 91.8245 49.0722C91.6839 49.4757 91.4395 49.8155 91.1656 50.1388C89.7778 51.7716 88.3859 53.4127 87.0063 55.0393C86.8928 55.1728 86.8906 55.2679 86.9692 55.4182C87.8011 56.9852 88.6247 58.548 89.4607 60.1335C89.6586 60.5082 89.8107 60.8995 89.8149 61.3298C89.8245 62.3099 89.1065 63.113 88.1326 63.2571C87.587 63.3368 87.0804 63.2203 86.5677 63.0625C85.322 62.6775 84.0762 62.2986 82.8202 61.9218C82.7043 61.8872 82.66 61.8413 82.6392 61.7167C82.4959 60.8375 82.3386 59.9603 82.1862 59.0811C82.1823 59.057 82.1895 59.0313 82.1936 58.9773C83.6164 59.3706 85.0351 59.7577 86.4971 60.1634" fill="#4F4F4F"/>
<path fill-rule="evenodd" clip-rule="evenodd" d="M84.007 73.0128C82.8827 73.0111 81.7626 73.0056 80.6301 73.0105C80.4812 73.0105 80.3974 72.9679 80.3151 72.8415C78.9849 70.8153 77.6383 68.7851 76.3205 66.7672C76.2778 66.703 76.2327 66.641 76.1572 66.5325C75.871 68.7151 75.5889 70.8565 75.3068 72.998H72.3623C72.3969 72.7117 72.4276 72.4338 72.4638 72.1579C72.75 69.9547 73.0404 67.772 73.3286 65.5688C73.6045 63.4686 73.8784 61.3683 74.1584 59.2681C74.1665 59.2061 74.2083 59.1264 74.2589 59.0934C75.272 58.4325 76.2892 57.7777 77.3063 57.1229C77.321 57.1132 77.3418 57.1124 77.3941 57.0972C77.0873 59.4445 76.7825 61.7713 76.4757 64.098C76.4879 64.1061 76.4998 64.1149 76.512 64.1229C78.1077 62.3563 79.7035 60.5813 81.3302 58.7899C81.3769 59.0617 81.4179 59.2944 81.4581 59.5271C81.5723 60.1922 81.6825 60.8614 81.804 61.5264C81.8289 61.6607 81.7927 61.7426 81.7035 61.8374C80.6719 62.9163 79.6444 63.9994 78.6149 65.0907C78.5698 65.1383 78.5272 65.1873 78.4757 65.2437C78.5086 65.2958 78.5368 65.3466 78.5698 65.3932C80.3427 67.8847 82.1114 70.3761 83.8822 72.8676C83.9143 72.9127 83.9609 72.9481 84.0004 72.9883V73.0276" fill="#4F4F4F"/>
<path fill-rule="evenodd" clip-rule="evenodd" d="M49.2087 66.4243C49.1636 66.1958 49.1315 65.8581 49.0294 65.5431C48.5352 64.0214 46.9765 63.1957 45.3642 63.5643C43.5914 63.9761 42.3168 65.3701 42.1521 67.1883C42.0162 68.5267 42.7369 69.8239 44.0753 70.2975C45.1542 70.6866 46.1961 70.524 47.1639 69.9454C48.4426 69.1794 49.1344 68.0407 49.2229 66.4243H49.2087ZM41.4254 72.0868C41.3385 72.7416 41.2549 73.3572 41.1742 73.975C41.0665 74.7945 40.958 75.6161 40.8551 76.4459C40.8431 76.5416 40.8141 76.5842 40.7111 76.5834C39.9019 76.5803 39.0927 76.5811 38.2814 76.5795C38.2629 76.5795 38.2444 76.5698 38.2009 76.557C38.2499 76.1699 38.2975 75.7808 38.3482 75.3937C38.5267 74.0347 38.7044 72.6757 38.8856 71.3167C39.0935 69.76 39.2562 68.2075 39.5218 66.6632C39.9913 63.9246 42.3222 61.5773 45.0401 60.9801C46.6195 60.6383 48.1288 60.7967 49.5083 61.6864C50.8838 62.5718 51.6704 63.869 51.8557 65.4751C52.111 67.7607 51.2688 69.655 49.6525 71.2405C48.5859 72.2721 47.3051 72.9269 45.8432 73.1493C44.3256 73.3778 42.8987 73.1252 41.6221 72.2309C41.5753 72.198 41.5247 72.1692 41.4444 72.1185" fill="#4F4F4F"/>
<path fill-rule="evenodd" clip-rule="evenodd" d="M40.0663 59.1148C39.1603 59.7901 38.2852 60.4408 37.4101 61.0935C37.2686 60.8712 37.1424 60.6488 36.9941 60.4408C36.6132 59.9075 36.1396 59.5101 35.4519 59.4627C34.8795 59.4224 34.3894 59.6106 34.0003 60.0331C33.6523 60.4099 33.607 60.9473 33.9319 61.3736C34.2902 61.843 34.6814 62.2878 35.0829 62.7223C35.748 63.4429 36.4419 64.1348 37.1008 64.8637C37.7 65.5226 38.1798 66.2598 38.328 67.1699C38.5043 68.2406 38.2903 69.2495 37.7844 70.1967C36.8475 71.9366 35.3753 72.9559 33.4192 73.2647C32.5585 73.4037 31.7019 73.3765 30.8659 73.1294C29.752 72.8021 28.9757 72.0711 28.4774 71.0498C28.3014 70.6853 28.1665 70.3003 28.0079 69.9091C28.9819 69.3881 29.9311 68.8795 30.8906 68.3668C30.9236 68.4465 30.9477 68.5132 30.9784 68.5768C31.1425 68.9042 31.2769 69.2522 31.4787 69.5549C32.082 70.4506 33.0539 70.7224 34.032 70.2797C34.2852 70.1654 34.5303 70.0058 34.7382 69.8205C35.3724 69.2563 35.4918 68.4698 35.0224 67.7614C34.7526 67.3537 34.415 66.9872 34.0855 66.6228C33.2989 65.7497 32.4794 64.9034 31.7176 64.0077C31.1884 63.3941 30.828 62.6817 30.7127 61.8663C30.5882 60.9685 30.7675 60.1243 31.2337 59.3748C32.3929 57.499 34.0752 56.5333 36.299 56.5951C37.5695 56.641 38.5846 57.2354 39.367 58.2238C39.5997 58.5162 39.818 58.8189 40.0548 59.136" fill="#4F4F4F"/>
<path fill-rule="evenodd" clip-rule="evenodd" d="M61.563 69.1006C61.4149 70.231 61.2747 71.3038 61.1306 72.3745C61.1225 72.4293 61.0799 72.5032 61.034 72.5242C58.8308 73.5414 55.9481 73.3993 54.1567 71.3526C53.1889 70.2531 52.7833 68.9435 52.843 67.5021C52.9836 64.1458 55.7669 61.2014 59.1026 60.7896C61.0484 60.5507 62.7471 61.0758 64.065 62.5892C64.9627 63.6187 65.3786 64.8542 65.3169 66.2132C65.2767 67.1109 65.1359 68.0025 65.0245 68.89C64.8659 70.1542 64.693 71.4226 64.5262 72.6787C64.5198 72.7227 64.511 72.7678 64.5005 72.8251H61.8854C61.92 72.5347 61.9521 72.2506 61.9892 71.9664C62.1791 70.5065 62.3887 69.0425 62.5555 67.5806C62.6592 66.6705 62.594 65.7665 62.1766 64.9244C61.7339 64.0287 60.9926 63.553 60.0146 63.4501C57.9925 63.2359 56.0611 64.6402 55.6493 66.6211C55.3652 67.9348 55.8134 69.1949 56.8601 69.895C57.8793 70.5724 58.9603 70.5745 60.0722 70.1359C60.6364 69.9135 61.1141 69.5594 61.5712 69.0837" fill="#4F4F4F"/>
<path fill-rule="evenodd" clip-rule="evenodd" d="M72.6822 61.1324C72.5624 62.0425 72.4434 62.9382 72.3239 63.8503C71.768 63.8503 71.2244 63.8473 70.6808 63.8512C70.2402 63.8545 69.8386 64.1394 69.7048 64.5513C69.6533 64.7121 69.6342 64.8848 69.6115 65.0537C69.3356 67.1539 69.0617 69.2336 68.7879 71.3133C68.7187 71.8404 68.652 72.3675 68.5828 72.9029H65.8442C65.8949 72.5013 65.9431 72.1122 65.9937 71.723C66.1714 70.3681 66.3499 69.005 66.5291 67.6666C66.6843 66.495 66.8235 65.3193 67.0068 64.1456C67.2518 62.5807 68.8085 61.1805 70.3837 61.1188C71.1373 61.0858 71.893 61.1132 72.6692 61.1132" fill="#4F4F4F"/>
<path d="M87.3018 73.013V71.8599H87.2954L86.8424 73.013H86.6985L86.2455 71.8599H86.2383V73.013H86.0118V71.6313H86.3639L86.7757 72.6815L87.1813 71.6313H87.5314V73.013H87.3018ZM85.2962 71.8167V73.013H85.0697V71.8167H84.6373V71.6316H85.7307V71.8167H85.2983" fill="#4F4F4F"/>
<path d="M43.7112 57.1784H44.3886L44.2284 56.153L43.7112 57.1784ZM44.4957 57.8414H43.3694L43.0111 58.5435H42.2122L43.9727 55.249H44.7428L45.342 58.5435H44.6027L44.4965 57.8414" fill="#4F4F4F"/>
<mask id="path-10-inside-1" fill="white">
<path d="M48.5293 55.9226H48.1278L47.9927 56.6824H48.3942C48.6372 56.6824 48.8287 56.5232 48.8287 56.2232C48.8287 56.0245 48.708 55.9226 48.5281 55.9226H48.5293ZM47.5574 55.2596H48.6117C49.1635 55.2596 49.5486 55.589 49.5486 56.1532C49.5486 56.8657 49.0461 57.3434 48.3296 57.3434H47.8745L47.6604 58.5479H46.9727L47.5533 55.2534"/>
</mask>
<path d="M48.5293 55.9226H48.1278L47.9927 56.6824H48.3942C48.6372 56.6824 48.8287 56.5232 48.8287 56.2232C48.8287 56.0245 48.708 55.9226 48.5281 55.9226H48.5293ZM47.5574 55.2596H48.6117C49.1635 55.2596 49.5486 55.589 49.5486 56.1532C49.5486 56.8657 49.0461 57.3434 48.3296 57.3434H47.8745L47.6604 58.5479H46.9727L47.5533 55.2534" fill="#4F4F4F"/>
<path d="M48.1278 55.9226V55.7167H47.9553L47.9251 55.8866L48.1278 55.9226ZM47.9927 56.6824L47.79 56.6464L47.747 56.8883H47.9927V56.6824ZM47.8745 57.3434V57.1375H47.702L47.6718 57.3073L47.8745 57.3434ZM47.6604 58.5479V58.7538H47.8329L47.8631 58.584L47.6604 58.5479ZM46.9727 58.5479L46.7699 58.5122L46.7273 58.7538H46.9727V58.5479ZM48.5293 55.7167H48.1278V56.1285H48.5293V55.7167ZM47.9251 55.8866L47.79 56.6464L48.1955 56.7185L48.3305 55.9587L47.9251 55.8866ZM47.9927 56.8883H48.3942V56.4765H47.9927V56.8883ZM48.3942 56.8883C48.5607 56.8883 48.7244 56.8332 48.8473 56.7118C48.9712 56.5894 49.0346 56.4184 49.0346 56.2232H48.6228C48.6228 56.328 48.5905 56.3867 48.5579 56.4188C48.5242 56.4521 48.4707 56.4765 48.3942 56.4765V56.8883ZM49.0346 56.2232C49.0346 56.0814 48.9904 55.9473 48.8881 55.8495C48.7874 55.7533 48.6559 55.7167 48.5281 55.7167V56.1285C48.5803 56.1285 48.599 56.1429 48.6036 56.1473C48.6067 56.1502 48.6228 56.1664 48.6228 56.2232H49.0346ZM48.5281 56.1285H48.5293V55.7167H48.5281V56.1285ZM47.5574 55.4655H48.6117V55.0537H47.5574V55.4655ZM48.6117 55.4655C48.8473 55.4655 49.0277 55.5354 49.1472 55.646C49.2646 55.7546 49.3427 55.9203 49.3427 56.1532H49.7545C49.7545 55.822 49.6399 55.5408 49.4269 55.3437C49.2159 55.1485 48.9279 55.0537 48.6117 55.0537V55.4655ZM49.3427 56.1532C49.3427 56.4593 49.2358 56.7016 49.0645 56.8676C48.8925 57.0342 48.6415 57.1375 48.3296 57.1375V57.5493C48.7343 57.5493 49.0927 57.4137 49.3511 57.1634C49.6101 56.9124 49.7545 56.5596 49.7545 56.1532H49.3427ZM48.3296 57.1375H47.8745V57.5493H48.3296V57.1375ZM47.6718 57.3073L47.4577 58.5119L47.8631 58.584L48.0773 57.3794L47.6718 57.3073ZM47.6604 58.342H46.9727V58.7538H47.6604V58.342ZM47.1754 58.5837L47.7561 55.2892L47.3505 55.2177L46.7699 58.5122L47.1754 58.5837Z" fill="#F8F8F8" mask="url(#path-10-inside-1)"/>
<mask id="path-12-inside-2" fill="white">
<path d="M51.8856 57.1784H52.563L52.403 56.153L51.8856 57.1784ZM52.668 57.8414H51.5417L51.1834 58.5435H50.3845L52.145 55.249H52.9151L53.5143 58.5435H52.7751L52.6689 57.8414"/>
</mask>
<path d="M51.8856 57.1784H52.563L52.403 56.153L51.8856 57.1784ZM52.668 57.8414H51.5417L51.1834 58.5435H50.3845L52.145 55.249H52.9151L53.5143 58.5435H52.7751L52.6689 57.8414" fill="#4F4F4F"/>
<path d="M51.8856 57.1784L51.7018 57.0856L51.551 57.3843H51.8856V57.1784ZM52.563 57.1784V57.3843H52.8035L52.7665 57.1466L52.563 57.1784ZM52.403 56.153L52.6065 56.1212L52.5077 55.4884L52.2192 56.0602L52.403 56.153ZM51.5417 57.8414V57.6355H51.4156L51.3583 57.7478L51.5417 57.8414ZM51.1834 58.5435V58.7495H51.3095L51.3669 58.6371L51.1834 58.5435ZM50.3845 58.5435L50.2029 58.4465L50.041 58.7495H50.3845V58.5435ZM52.145 55.249V55.0431H52.0216L51.9634 55.152L52.145 55.249ZM52.9151 55.249L53.1177 55.2122L53.087 55.0431H52.9151V55.249ZM53.5143 58.5435V58.7495H53.7611L53.7169 58.5067L53.5143 58.5435ZM52.7751 58.5435L52.5715 58.5744L52.598 58.7495H52.7751V58.5435ZM51.8856 57.3843H52.563V56.9725H51.8856V57.3843ZM52.7665 57.1466L52.6065 56.1212L52.1996 56.1847L52.3596 57.2101L52.7665 57.1466ZM52.2192 56.0602L51.7018 57.0856L52.0694 57.2711L52.5869 56.2457L52.2192 56.0602ZM52.668 57.6355H51.5417V58.0473H52.668V57.6355ZM51.3583 57.7478L51 58.45L51.3669 58.6371L51.7251 57.935L51.3583 57.7478ZM51.1834 58.3376H50.3845V58.7495H51.1834V58.3376ZM50.5661 58.6406L52.3266 55.3461L51.9634 55.152L50.2029 58.4465L50.5661 58.6406ZM52.145 55.4549H52.9151V55.0431H52.145V55.4549ZM52.7125 55.2859L53.3117 58.5804L53.7169 58.5067L53.1177 55.2122L52.7125 55.2859ZM53.5143 58.3376H52.7751V58.7495H53.5143V58.3376ZM52.9787 58.5127L52.8724 57.8106L52.4653 57.8722L52.5715 58.5744L52.9787 58.5127Z" fill="#F8F8F8" mask="url(#path-12-inside-2)"/>
<mask id="path-14-inside-3" fill="white">
<path d="M57.0334 58.435C56.8007 58.5412 56.5454 58.6046 56.288 58.6046C55.417 58.6046 54.8713 57.9519 54.8713 57.1345C54.8713 56.0885 55.7506 55.2092 56.7966 55.2092C57.0581 55.2092 57.2949 55.272 57.4884 55.3781L57.3919 56.1667C57.2471 56.0067 57.013 55.8949 56.7247 55.8949C56.1255 55.8949 55.5922 56.4364 55.5922 57.0645C55.5922 57.5422 55.8928 57.9169 56.3664 57.9169C56.6568 57.9169 56.9368 57.8051 57.1262 57.6513L57.0346 58.4337"/>
</mask>
<path d="M57.0334 58.435C56.8007 58.5412 56.5454 58.6046 56.288 58.6046C55.417 58.6046 54.8713 57.9519 54.8713 57.1345C54.8713 56.0885 55.7506 55.2092 56.7966 55.2092C57.0581 55.2092 57.2949 55.272 57.4884 55.3781L57.3919 56.1667C57.2471 56.0067 57.013 55.8949 56.7247 55.8949C56.1255 55.8949 55.5922 56.4364 55.5922 57.0645C55.5922 57.5422 55.8928 57.9169 56.3664 57.9169C56.6568 57.9169 56.9368 57.8051 57.1262 57.6513L57.0346 58.4337" fill="#4F4F4F"/>
<path d="M57.4884 55.3781L57.6928 55.4031L57.7098 55.2646L57.5874 55.1975L57.4884 55.3781ZM57.3919 56.1667L57.2392 56.3048L57.5415 56.639L57.5962 56.1917L57.3919 56.1667ZM57.1262 57.6513L57.3307 57.6752L57.3897 57.1722L56.9964 57.4914L57.1262 57.6513ZM56.9478 58.2477C56.7381 58.3434 56.5119 58.3987 56.288 58.3987V58.8106C56.5789 58.8106 56.8632 58.739 57.1189 58.6223L56.9478 58.2477ZM56.288 58.3987C55.907 58.3987 55.6086 58.2574 55.4042 58.0363C55.1982 57.8134 55.0772 57.4976 55.0772 57.1345H54.6654C54.6654 57.5887 54.8173 58.0081 55.1018 58.3159C55.388 58.6255 55.798 58.8106 56.288 58.8106V58.3987ZM55.0772 57.1345C55.0772 56.2022 55.8643 55.4151 56.7966 55.4151V55.0033C55.6368 55.0033 54.6654 55.9747 54.6654 57.1345H55.0772ZM56.7966 55.4151C57.0253 55.4151 57.2278 55.4701 57.3895 55.5587L57.5874 55.1975C57.362 55.074 57.0909 55.0033 56.7966 55.0033V55.4151ZM57.284 55.353L57.1875 56.1417L57.5962 56.1917L57.6928 55.4031L57.284 55.353ZM57.5445 56.0286C57.3577 55.8221 57.0665 55.689 56.7247 55.689V56.1008C56.9595 56.1008 57.1365 56.1913 57.2392 56.3048L57.5445 56.0286ZM56.7247 55.689C56.0066 55.689 55.3863 56.328 55.3863 57.0645H55.7981C55.7981 56.5449 56.2444 56.1008 56.7247 56.1008V55.689ZM55.3863 57.0645C55.3863 57.3457 55.4749 57.6092 55.6468 57.8055C55.821 58.0043 56.0713 58.1228 56.3664 58.1228V57.711C56.188 57.711 56.0512 57.6422 55.9566 57.5342C55.8598 57.4236 55.7981 57.261 55.7981 57.0645H55.3863ZM56.3664 58.1228C56.7061 58.1228 57.0315 57.9934 57.256 57.8111L56.9964 57.4914C56.8421 57.6168 56.6074 57.711 56.3664 57.711V58.1228ZM56.9217 57.6273L56.8301 58.4098L57.2391 58.4577L57.3307 57.6752L56.9217 57.6273Z" fill="#F8F8F8" mask="url(#path-14-inside-3)"/>
<mask id="path-16-inside-4" fill="white">
<path d="M61.3575 57.2196H59.9264L59.6937 58.5435H59.0081L59.5887 55.249H60.2764L60.0458 56.5504H61.4769L61.7096 55.249H62.3973L61.8166 58.5435H61.1289L61.3595 57.2196"/>
</mask>
<path d="M61.3575 57.2196H59.9264L59.6937 58.5435H59.0081L59.5887 55.249H60.2764L60.0458 56.5504H61.4769L61.7096 55.249H62.3973L61.8166 58.5435H61.1289L61.3595 57.2196" fill="#4F4F4F"/>
<path d="M59.9264 57.2196V57.0137H59.7535L59.7236 57.1839L59.9264 57.2196ZM59.6937 58.5435V58.7495H59.8666L59.8965 58.5792L59.6937 58.5435ZM59.0081 58.5435L58.8053 58.5078L58.7627 58.7495H59.0081V58.5435ZM59.5887 55.249V55.0431H59.4159L59.3859 55.2133L59.5887 55.249ZM60.2764 55.249L60.4792 55.285L60.5221 55.0431H60.2764V55.249ZM60.0458 56.5504L59.8431 56.5144L59.8002 56.7563H60.0458V56.5504ZM61.4769 56.5504V56.7563H61.6492L61.6796 56.5866L61.4769 56.5504ZM61.7096 55.249V55.0431H61.5372L61.5069 55.2128L61.7096 55.249ZM62.3973 55.249L62.6001 55.2848L62.6427 55.0431H62.3973V55.249ZM61.8166 58.5435V58.7495H61.9894L62.0194 58.5793L61.8166 58.5435ZM61.1289 58.5435L60.9261 58.5082L60.884 58.7495H61.1289V58.5435ZM61.3575 57.0137H59.9264V57.4255H61.3575V57.0137ZM59.7236 57.1839L59.4909 58.5079L59.8965 58.5792L60.1292 57.2552L59.7236 57.1839ZM59.6937 58.3376H59.0081V58.7495H59.6937V58.3376ZM59.2108 58.5793L59.7915 55.2848L59.3859 55.2133L58.8053 58.5078L59.2108 58.5793ZM59.5887 55.4549H60.2764V55.0431H59.5887V55.4549ZM60.0737 55.2131L59.8431 56.5144L60.2486 56.5863L60.4792 55.285L60.0737 55.2131ZM60.0458 56.7563H61.4769V56.3445H60.0458V56.7563ZM61.6796 56.5866L61.9123 55.2853L61.5069 55.2128L61.2742 56.5141L61.6796 56.5866ZM61.7096 55.4549H62.3973V55.0431H61.7096V55.4549ZM62.1945 55.2133L61.6139 58.5078L62.0194 58.5793L62.6001 55.2848L62.1945 55.2133ZM61.8166 58.3376H61.1289V58.7495H61.8166V58.3376ZM61.3318 58.5789L61.5624 57.2549L61.1567 57.1842L60.9261 58.5082L61.3318 58.5789Z" fill="#F8F8F8" mask="url(#path-16-inside-4)"/>
<mask id="path-18-inside-5" fill="white">
<path d="M63.8281 58.5372L64.4088 55.2427H66.2331L66.1172 55.9057H64.9806L64.8647 56.544H65.9086L65.7927 57.207H64.7487L64.6328 57.8701H65.7694L65.6535 58.5331H63.8292"/>
</mask>
<path d="M63.8281 58.5372L64.4088 55.2427H66.2331L66.1172 55.9057H64.9806L64.8647 56.544H65.9086L65.7927 57.207H64.7487L64.6328 57.8701H65.7694L65.6535 58.5331H63.8292" fill="#4F4F4F"/>
<path d="M64.4088 55.2427V55.0368H64.236L64.206 55.2069L64.4088 55.2427ZM66.2331 55.2427L66.436 55.2781L66.4782 55.0368H66.2331V55.2427ZM66.1172 55.9057V56.1116H66.2902L66.32 55.9412L66.1172 55.9057ZM64.9806 55.9057V55.6998H64.8087L64.778 55.8689L64.9806 55.9057ZM64.8647 56.544L64.6621 56.5072L64.618 56.7499H64.8647V56.544ZM65.9086 56.544L66.1114 56.5795L66.1536 56.3381H65.9086V56.544ZM65.7927 57.207V57.4129H65.9657L65.9955 57.2425L65.7927 57.207ZM64.7487 57.207V57.0011H64.5757L64.5459 57.1716L64.7487 57.207ZM64.6328 57.8701L64.43 57.8346L64.3878 58.076H64.6328V57.8701ZM65.7694 57.8701L65.9722 57.9055L66.0145 57.6641H65.7694V57.8701ZM65.6535 58.5331V58.739H65.8265L65.8563 58.5685L65.6535 58.5331ZM64.0309 58.5729L64.6116 55.2784L64.206 55.2069L63.6253 58.5015L64.0309 58.5729ZM64.4088 55.4486H66.2331V55.0368H64.4088V55.4486ZM66.0303 55.2072L65.9144 55.8702L66.32 55.9412L66.436 55.2781L66.0303 55.2072ZM66.1172 55.6998H64.9806V56.1116H66.1172V55.6998ZM64.778 55.8689L64.6621 56.5072L65.0673 56.5808L65.1832 55.9425L64.778 55.8689ZM64.8647 56.7499H65.9086V56.3381H64.8647V56.7499ZM65.7058 56.5085L65.5899 57.1716L65.9955 57.2425L66.1114 56.5795L65.7058 56.5085ZM65.7927 57.0011H64.7487V57.4129H65.7927V57.0011ZM64.5459 57.1716L64.43 57.8346L64.8356 57.9055L64.9516 57.2425L64.5459 57.1716ZM64.6328 58.076H65.7694V57.6641H64.6328V58.076ZM65.5666 57.8346L65.4507 58.4976L65.8563 58.5685L65.9722 57.9055L65.5666 57.8346ZM65.6535 58.3272H63.8292V58.739H65.6535V58.3272Z" fill="#F8F8F8" mask="url(#path-18-inside-5)"/>
</g>
</g>
<defs>
<clipPath id="clip0">
<rect width="64" height="64" fill="white" transform="translate(28 28)"/>
</clipPath>
<clipPath id="clip1">
<rect width="64.0945" height="33.2858" fill="white" transform="translate(28 43.3623)"/>
</clipPath>
</defs>
</svg>
